0002.jpg 89 97 204 212
0003.jpg 131 100 317 307
0007.jpg 307 125 372 187
0011.jpg 246 134 336 257
0012.jpg 168 81 257 201
0013.jpg 245 69 350 195
0017.jpg 219 77 312 168
0019.jpg 293 93 347 159
0025.jpg 257 160 351 245
0027.jpg 159 34 252 135
0028.jpg 358 50 447 137
0029.jpg 79 128 147 190
0032.jpg 122 83 236 210
0035.jpg 84 109 135 170
0036.jpg 118 163 180 232
0037.jpg 154 101 330 275
0044.jpg 274 203 334 283
0047.jpg 143 82 308 235
0056.jpg 132 82 203 169
0058.jpg 289 120 334 184
0059.jpg 254 66 390 235
0060.jpg 189 103 294 279
0063.jpg 93 131 144 192
0065.jpg 250 37 383 175
0068.jpg 232 132 348 275
0076.jpg 181 114 271 211
0077.jpg 154 105 292 291
0078.jpg 100 84 211 208
0082.jpg 296 125 372 219
0083.jpg 160 113 213 186
0085.jpg 256 150 310 228
0087.jpg 264 102 366 245
0088.jpg 182 103 282 275
0090.jpg 262 130 358 250
0094.jpg 95 137 162 203
0095.jpg 192 94 289 217
0101.jpg 137 191 213 291
0103.jpg 317 150 375 235
0104.jpg 159 68 288 198
0114.jpg 212 121 388 314
0118.jpg 285 95 356 173
0119.jpg 109 48 187 138
0121.jpg 138 97 318 289
0122.jpg 125 49 199 162
0123.jpg 245 144 298 211
0125.jpg 192 153 245 220
0126.jpg 240 97 300 160
0128.jpg 290 116 385 223
0129.jpg 170 109 296 259
0130.jpg 332 117 390 179
0134.jpg 203 120 322 250
0135.jpg 157 117 362 332
0137.jpg 347 96 444 183
0141.jpg 185 100 313 242
0142.jpg 176 68 250 145
0143.jpg 230 91 308 176
0150.jpg 134 123 228 215
0152.jpg 272 114 366 226
0153.jpg 183 106 269 233
0154.jpg 107 55 185 149
0155.jpg 270 71 364 197
0157.jpg 223 95 335 259
0158.jpg 254 115 306 188
0161.jpg 320 116 422 255
0162.jpg 331 138 416 288
0163.jpg 222 91 270 145
0167.jpg 63 102 143 203
0169.jpg 141 204 201 258
0171.jpg 216 88 360 253
0175.jpg 257 115 343 232
0176.jpg 196 101 268 189
0178.jpg 328 103 418 211
0181.jpg 177 148 241 219
0184.jpg 165 145 306 303
0188.jpg 199 103 272 191
0189.jpg 289 97 361 168
0190.jpg 207 86 275 156
0191.jpg 207 81 272 165
0193.jpg 293 55 365 149
0194.jpg 178 98 337 283
0197.jpg 219 115 339 251
0198.jpg 213 65 275 139
0199.jpg 184 113 289 256
